launch_status failed=0 1632202389000000000
launch_status broken=0 1632202389000000000
launch_status passed=3 1632202389000000000
launch_status skipped=0 1632202389000000000
launch_status unknown=0 1632202389000000000
launch_time duration=169774 1632202389000000000
launch_time min_duration=1534 1632202389000000000
launch_time max_duration=152630 1632202389000000000
launch_time sum_duration=169766 1632202389000000000
launch_retries retries=0 1632202389000000000
launch_retries run=3 1632202389000000000
