{
  "uid" : "83edc06c07f9ae9e47eb6dd1b683e4e2",
  "children" : [ {
    "name" : "TestCase.SG.test_sample_10012",
    "children" : [ {
      "name" : "test_create_order_10012",
      "uid" : "dd0d9a11fa6ad00c",
      "parentUid" : "2cd6ea4cedd04f882072c8f51d994c3f",
      "status" : "passed",
      "time" : {
        "start" : 1632202218588,
        "stop" : 1632202371218,
        "duration" : 152630
      },
      "flaky" : false,
      "newFailed" : false,
      "parameters" : [ ]
    }, {
      "name" : "test_arrange_shipment_10012",
      "uid" : "84b2a052afb0265d",
      "parentUid" : "2cd6ea4cedd04f882072c8f51d994c3f",
      "status" : "passed",
      "time" : {
        "start" : 1632202371223,
        "stop" : 1632202372757,
        "duration" : 1534
      },
      "flaky" : false,
      "newFailed" : false,
      "parameters" : [ ]
    }, {
      "name" : "test_print_AWB",
      "uid" : "6c3bad70afa8e145",
      "parentUid" : "2cd6ea4cedd04f882072c8f51d994c3f",
      "status" : "passed",
      "time" : {
        "start" : 1632202372760,
        "stop" : 1632202388362,
        "duration" : 15602
      },
      "flaky" : false,
      "newFailed" : false,
      "parameters" : [ ]
    } ],
    "uid" : "TestCase.SG.test_sample_10012"
  } ],
  "name" : "packages"
}