{
  "uid" : "98d3104e051c652961429bf95fa0b5d6",
  "children" : [ {
    "name" : "TestCase.SG",
    "children" : [ {
      "name" : "test_sample_10012",
      "children" : [ {
        "name" : "Test_Sample_10012",
        "children" : [ {
          "name" : "test_create_order_10012",
          "uid" : "dd0d9a11fa6ad00c",
          "parentUid" : "48b0e4c968545d49f1bce7f600f2b9ef",
          "status" : "passed",
          "time" : {
            "start" : 1632202218588,
            "stop" : 1632202371218,
            "duration" : 152630
          },
          "flaky" : false,
          "newFailed" : false,
          "parameters" : [ ]
        }, {
          "name" : "test_arrange_shipment_10012",
          "uid" : "84b2a052afb0265d",
          "parentUid" : "48b0e4c968545d49f1bce7f600f2b9ef",
          "status" : "passed",
          "time" : {
            "start" : 1632202371223,
            "stop" : 1632202372757,
            "duration" : 1534
          },
          "flaky" : false,
          "newFailed" : false,
          "parameters" : [ ]
        }, {
          "name" : "test_print_AWB",
          "uid" : "6c3bad70afa8e145",
          "parentUid" : "48b0e4c968545d49f1bce7f600f2b9ef",
          "status" : "passed",
          "time" : {
            "start" : 1632202372760,
            "stop" : 1632202388362,
            "duration" : 15602
          },
          "flaky" : false,
          "newFailed" : false,
          "parameters" : [ ]
        } ],
        "uid" : "48b0e4c968545d49f1bce7f600f2b9ef"
      } ],
      "uid" : "38d28a53eb7dc4198d3ec4d289d949e0"
    } ],
    "uid" : "61c2581606b1dcbe8aa878e0a3921486"
  } ],
  "name" : "suites"
}