{
  "uid" : "ab17fc5a4eb3bca4b216b548c7f9fcbc",
  "children" : [ {
    "name" : "C02D37B2MD6T",
    "children" : [ {
      "name" : "4253-MainThread",
      "children" : [ {
        "name" : "test_print_AWB",
        "uid" : "6c3bad70afa8e145",
        "parentUid" : "e3ae92cc475fb328ac9dcdabbc31933a",
        "status" : "passed",
        "time" : {
          "start" : 1632202372760,
          "stop" : 1632202388362,
          "duration" : 15602
        },
        "flaky" : false,
        "newFailed" : false,
        "parameters" : [ ]
      }, {
        "name" : "test_arrange_shipment_10012",
        "uid" : "84b2a052afb0265d",
        "parentUid" : "e3ae92cc475fb328ac9dcdabbc31933a",
        "status" : "passed",
        "time" : {
          "start" : 1632202371223,
          "stop" : 1632202372757,
          "duration" : 1534
        },
        "flaky" : false,
        "newFailed" : false,
        "parameters" : [ ]
      }, {
        "name" : "test_create_order_10012",
        "uid" : "dd0d9a11fa6ad00c",
        "parentUid" : "e3ae92cc475fb328ac9dcdabbc31933a",
        "status" : "passed",
        "time" : {
          "start" : 1632202218588,
          "stop" : 1632202371218,
          "duration" : 152630
        },
        "flaky" : false,
        "newFailed" : false,
        "parameters" : [ ]
      } ],
      "uid" : "e3ae92cc475fb328ac9dcdabbc31933a"
    } ],
    "uid" : "eafb0b9de9899df48c2953b62bd53506"
  } ],
  "name" : "timeline"
}