{
  "abdbd17f3cf2c89da9194a19bf93a151" : {
    "statistic" : {
      "failed" : 0,
      "broken" : 0,
      "skipped" : 0,
      "passed" : 1,
      "unknown" : 0,
      "total" : 1
    },
    "items" : [ {
      "uid" : "dd0d9a11fa6ad00c",
      "status" : "passed",
      "time" : {
        "start" : 1632202218588,
        "stop" : 1632202371218,
        "duration" : 152630
      }
    } ]
  },
  "7d80ed4f98f0f0d93add05f153d8da93" : {
    "statistic" : {
      "failed" : 0,
      "broken" : 0,
      "skipped" : 0,
      "passed" : 1,
      "unknown" : 0,
      "total" : 1
    },
    "items" : [ {
      "uid" : "6c3bad70afa8e145",
      "status" : "passed",
      "time" : {
        "start" : 1632202372760,
        "stop" : 1632202388362,
        "duration" : 15602
      }
    } ]
  },
  "52b7475cd8e4ef12e6ffe7a76e8a9e8a" : {
    "statistic" : {
      "failed" : 0,
      "broken" : 0,
      "skipped" : 0,
      "passed" : 1,
      "unknown" : 0,
      "total" : 1
    },
    "items" : [ {
      "uid" : "84b2a052afb0265d",
      "status" : "passed",
      "time" : {
        "start" : 1632202371223,
        "stop" : 1632202372757,
        "duration" : 1534
      }
    } ]
  }
}