[ {
  "uid" : "6c3bad70afa8e145",
  "name" : "test_print_AWB",
  "time" : {
    "start" : 1632202372760,
    "stop" : 1632202388362,
    "duration" : 15602
  },
  "status" : "passed",
  "severity" : "normal"
}, {
  "uid" : "84b2a052afb0265d",
  "name" : "test_arrange_shipment_10012",
  "time" : {
    "start" : 1632202371223,
    "stop" : 1632202372757,
    "duration" : 1534
  },
  "status" : "passed",
  "severity" : "normal"
}, {
  "uid" : "dd0d9a11fa6ad00c",
  "name" : "test_create_order_10012",
  "time" : {
    "start" : 1632202218588,
    "stop" : 1632202371218,
    "duration" : 152630
  },
  "status" : "passed",
  "severity" : "normal"
} ]